Functions Overview
…
We will need to use the tidy_scrap() function as follows:

my_link <- "https://www.imdb.com/search/title/?groups=top_250&sort=user_rating"

my_nodes <- c(
  ".lister-item-header a", # The title 
  ".text-muted.unbold", # The year of release 
  ".ratings-imdb-rating strong" # The rating)
  )

names <- c("title", "year", "rating") # respect the nodes order

tidy_scrap(link = my_link, nodes = my_nodes, colnames = names)
#> # A tibble: 50 x 3
#>    title                                         year   rating
#>    <chr>                                         <chr>  <chr> 
#>  1 The Shawshank Redemption                      (1994) 9.3   
#>  2 The Godfather                                 (1972) 9.2   
#>  3 The Dark Knight                               (2008) 9.0   
#>  4 The Godfather: Part II                        (1974) 9.0   
#>  5 12 Angry Men                                  (1957) 9.0   
#>  6 The Lord of the Rings: The Return of the King (2003) 8.9   
#>  7 Pulp Fiction                                  (1994) 8.9   
#>  8 Schindler's List                              (1993) 8.9   
#>  9 Inception                                     (2010) 8.8   
#> 10 Fight Club                                    (1999) 8.8   
#> # ... with 40 more rows
…
